Buffer based light system for unlimited light with raw forward pass + hdr tone mapping:
==============================================
RENDER INFO:
	Nedded 0.419327 ms to get all opaque meshes
	Nedded 0.02102 ms to update the light set!
	Nedded 0.00057 ms to dispatch compute shader
	Nedded 0.178683 ms to draw all opaque meshes
	Nedded 0.094292 ms to draw all transparent meshes!
	Finished adding meshes
	Changed to subpass
	Added postprogress thingy
	Ending frame
FrameTime: 11.048618ms
Which is 0.09050906fps
This Frame after waiting: 87.416595
==============================================
Same as above but with dispatched compute shader, but the shader doesn't do any work atm
==============================================
RENDER INFO:
	Nedded 0.244705 ms to get all opaque meshes
	Nedded 0.02774 ms to update the light set!
	Nedded 2.004158 ms to dispatch compute shader
	Nedded 0.086741 ms to draw all opaque meshes
	Nedded 0.03908 ms to draw all transparent meshes!
	Finished adding meshes
	Changed to subpass
	Added postprogress thingy
	Ending frame
FrameTime: 9.788332ms
Which is 0.10216245fps
This Frame after waiting: 98.12513
==============================================
NEW in clustered:
==============================================
RENDER INFO:
	Nedded 0.160563 ms to get all opaque meshes
	Nedded 0.02313 ms to update the light set!
Dispatched compute buffer
	Nedded 0.034811 ms to dispatch compute shader
	Nedded 0.141712 ms to draw all opaque meshes
	Nedded 0.132373 ms to draw all transparent meshes!
	Finished adding meshes
	Changed to subpass
	Added postprogress thingy
	Ending frame
FrameTime: 1.794419ms


==============================================
Cluster speed (small scene):
32,8,32 ~35fps sponza
64,16,64 ~18 sponza
16,4,16 ~55 sponza
16,16,16 ~45 sponza

MultiThreading
==============================================
10x10 point-lights + sun "Cube_Plane" map: 4ms CPU, 5ms GPU
10x10 point-lights + sun "Sponza" map: 25ms CPU, 9ms GPU

DrawCallTime
==============================================
Before closure MultiThreading:
6.494352


BVH fps before bottom level acceleration structe:
Cube_Plane: 100-160 fps
